0000.004 (0) Opened log file at time: Sat, 05 Mar 2022 14:51:53 +0000 on https://www.africhild.or.ug
0000.009 (0) UpdraftPlus WordPress backup plugin (https://updraftplus.com): 1.16.16 WP: 5.2.14 PHP: 7.4.27 (litespeed, Linux webhost05.i3c.co.ug 3.10.0-962.3.2.lve1.5.56.el7.x86_64 #1 SMP Thu May 27 10:10:44 UTC 2021 x86_64) MySQL: 10.2.41-MariaDB-cll-lve WPLANG: en_US Server: LiteSpeed safe_mode: 0 max_execution_time: 900 memory_limit: 256M (used: 63.9M | 65M) multisite: N openssl: OpenSSL 1.1.1m  14 Dec 2021 mcrypt: N LANG:  ZipArchive::addFile: Y
0000.121 (0) Free space on disk containing Updraft's temporary directory: 881378.4 MB
0000.134 (0) Deleting old log file: log.b9b62be55d33.txt
0000.149 (0) Tasks: Backup files: 1 (schedule: daily) Backup DB:  (schedule: daily)
0000.151 (0) Processed schedules. Combining jobs from identical schedules. Tasks now: Backup files: 1 Backup DB: 1
0000.158 (0) Requesting semaphore lock (fd) (apparently via scheduler: last_scheduled_action_called_at=1646405830, seconds_ago=86083)
0000.163 (0) Set semaphore last lock (fd) time to 2022-03-05 14:51:53
0000.164 (0) Semaphore lock (fd) complete
0000.170 (0) Backup run: resumption=0, nonce=bd10d00d7e9b, file_nonce=bd10d00d7e9b begun at=1646491913 (0s ago), job type=backup
0000.173 (0) Scheduling a resumption (1) after 300 seconds (1646492213) in case this run gets aborted
0000.349 (0) Checking if we have a zip executable available
0000.353 (0) Testing: /usr/bin/zip
0000.685 (0) Output: zip warning: binziptest/test.zip not found or empty
0000.691 (0) Output: adding: binziptest/subdir1/	(in=0) (out=0) (stored 0%)
0000.698 (0) Output: adding: binziptest/subdir1/subdir2/	(in=0) (out=0) (stored 0%)
0000.701 (0) Output: adding: binziptest/subdir1/subdir2/test.html	(in=131) (out=107) (deflated 18%)
0000.703 (0) Output: total bytes=131, compressed=107 -> 18% savings
0000.760 (0) Output: adding: binziptest/subdir1/subdir2/test2.html	(in=138) (out=113) (deflated 18%)
0000.763 (0) Output: total bytes=269, compressed=220 -> 18% savings
0000.962 (0) Working binary zip found: /usr/bin/zip
0000.966 (0) Zip engine: found/will use a binary zip: /usr/bin/zip
0000.967 (0) Creation of backups of directories: beginning
0000.981 (0) No backup of plugins: excluded by user's options
0000.982 (0) No backup of themes: excluded by user's options
0000.983 (0) No backup of uploads: excluded by user's options
0000.985 (0) No backup of others: excluded by user's options
0000.989 (0) Saving backup status to database (elements: 0)
0001.040 (0) Beginning creation of database dump (WordPress DB)
0001.046 (0) Testing potential mysqldump binary: /usr/bin/mysqldump
0003.835 (0) Output: /*!40103 SET @OLD_TIME_ZONE=@@TIME_ZONE */;\n/*!40103 SET TIME_ZONE='+00:00' */;\n/*!40014 SET @OLD_UNIQUE_CHECKS=@@UNIQUE_CHECKS, UNIQUE_CHECKS=0 */;\n/*!40014 SET @OLD_FOREIGN_KEY_CHECKS=@@FOREIGN_KEY_CHECKS, FOREIGN_KEY_CHECKS=0 */;\n/*!40101 SET @OLD_SQL_MODE=@@SQL_MODE, SQL_MODE='NO_AUTO_VALUE_ON_ZERO' */;\n/*!40111 SET @OLD_SQL_NOTES=@@SQL_NOTES, SQL_NOTES=0 */;\nDROP TABLE IF EXISTS `wpq1_options`;\n/*!40101 SET @saved_cs_client     = @@character_set_client */;\n/*!40101 SET character_set_client = utf8 */;\nC (truncated - 1234 bytes total)
0003.863 (0) Working binary mysqldump found: /usr/bin/mysqldump
0003.959 (0) Table wpq1_options: Total expected rows (approximate): 927
0004.160 (0) Table wpq1_options: Total rows added: 931 in 0.20 seconds
0004.213 (0) Table wpq1_options: finishing file (backup_2022-03-05-1751_Africhild_bd10d00d7e9b-db-table-wpq1_options.table.gz - 211.7 KB)
0004.226 (0) Table wpq1_users: Total expected rows (approximate): 2
0004.232 (0) Table wpq1_users: Total rows added: 2 in 0.00 seconds
0004.237 (0) Table wpq1_users: finishing file (backup_2022-03-05-1751_Africhild_bd10d00d7e9b-db-table-wpq1_users.table.gz - 0.7 KB)
0004.248 (0) Table wpq1_usermeta: Total expected rows (approximate): 77
0004.255 (0) Table wpq1_usermeta: Total rows added: 77 in 0.01 seconds
0004.261 (0) Table wpq1_usermeta: finishing file (backup_2022-03-05-1751_Africhild_bd10d00d7e9b-db-table-wpq1_usermeta.table.gz - 2.4 KB)
0004.277 (0) Table wpq1_commentmeta: Total expected rows (approximate): 60
0004.284 (0) Table wpq1_commentmeta: Total rows added: 63 in 0.00 seconds
0004.312 (0) Table wpq1_commentmeta: finishing file (backup_2022-03-05-1751_Africhild_bd10d00d7e9b-db-table-wpq1_commentmeta.table.gz - 1.3 KB)
0004.327 (0) Table wpq1_comments: Total expected rows (approximate): 20
0004.335 (0) Table wpq1_comments: Total rows added: 21 in 0.01 seconds
0004.340 (0) Table wpq1_comments: finishing file (backup_2022-03-05-1751_Africhild_bd10d00d7e9b-db-table-wpq1_comments.table.gz - 2.9 KB)
0004.357 (0) Table wpq1_imagify_files: Total expected rows (approximate): 0
0004.362 (0) Table wpq1_imagify_files: Total rows added: 0 in 0.00 seconds
0004.365 (0) Table wpq1_imagify_files: finishing file (backup_2022-03-05-1751_Africhild_bd10d00d7e9b-db-table-wpq1_imagify_files.table.gz - 0.5 KB)
0004.375 (0) Table wpq1_imagify_folders: Total expected rows (approximate): 0
0004.379 (0) Table wpq1_imagify_folders: Total rows added: 0 in 0.00 seconds
0004.382 (0) Table wpq1_imagify_folders: finishing file (backup_2022-03-05-1751_Africhild_bd10d00d7e9b-db-table-wpq1_imagify_folders.table.gz - 0.4 KB)
0004.390 (0) Table wpq1_links: Total expected rows (approximate): 0
0004.394 (0) Table wpq1_links: Total rows added: 0 in 0.00 seconds
0004.396 (0) Table wpq1_links: finishing file (backup_2022-03-05-1751_Africhild_bd10d00d7e9b-db-table-wpq1_links.table.gz - 0.4 KB)
0004.405 (0) Table wpq1_postmeta: Total expected rows (approximate): 12512
0012.071 (0) Table wpq1_postmeta: binary mysqldump finished (writes: 101) in 7.66 seconds
0012.077 (0) Table wpq1_postmeta: finishing file (backup_2022-03-05-1751_Africhild_bd10d00d7e9b-db-table-wpq1_postmeta.table.gz - 4227.2 KB)
0012.085 (0) Table wpq1_posts: Total expected rows (approximate): 2015
0013.560 (0) Table wpq1_posts: Total rows added: 2194 in 1.47 seconds
0013.623 (0) Table wpq1_posts: finishing file (backup_2022-03-05-1751_Africhild_bd10d00d7e9b-db-table-wpq1_posts.table.gz - 1255 KB)
0013.632 (0) Table wpq1_term_relationships: Total expected rows (approximate): 271
0013.637 (0) Table wpq1_term_relationships: Total rows added: 286 in 0.00 seconds
0013.639 (0) Table wpq1_term_relationships: finishing file (backup_2022-03-05-1751_Africhild_bd10d00d7e9b-db-table-wpq1_term_relationships.table.gz - 1.2 KB)
0013.648 (0) Table wpq1_term_taxonomy: Total expected rows (approximate): 85
0013.659 (0) Table wpq1_term_taxonomy: Total rows added: 85 in 0.01 seconds
0013.663 (0) Table wpq1_term_taxonomy: finishing file (backup_2022-03-05-1751_Africhild_bd10d00d7e9b-db-table-wpq1_term_taxonomy.table.gz - 1 KB)
0013.672 (0) Table wpq1_termmeta: Total expected rows (approximate): 5
0013.677 (0) Table wpq1_termmeta: Total rows added: 5 in 0.00 seconds
0013.686 (0) Table wpq1_termmeta: finishing file (backup_2022-03-05-1751_Africhild_bd10d00d7e9b-db-table-wpq1_termmeta.table.gz - 0.4 KB)
0013.694 (0) Table wpq1_terms: Total expected rows (approximate): 85
0013.699 (0) Table wpq1_terms: Total rows added: 85 in 0.00 seconds
0013.702 (0) Table wpq1_terms: finishing file (backup_2022-03-05-1751_Africhild_bd10d00d7e9b-db-table-wpq1_terms.table.gz - 1.4 KB)
0013.710 (0) Table wpq1_actionscheduler_actions: Total expected rows (approximate): 33
0013.717 (0) Table wpq1_actionscheduler_actions: Total rows added: 33 in 0.01 seconds
0013.720 (0) Table wpq1_actionscheduler_actions: finishing file (backup_2022-03-05-1751_Africhild_bd10d00d7e9b-db-table-wpq1_actionscheduler_actions.table.gz - 2 KB)
0013.730 (0) Table wpq1_actionscheduler_claims: Total expected rows (approximate): 0
0013.733 (0) Table wpq1_actionscheduler_claims: Total rows added: 0 in 0.00 seconds
0013.736 (0) Table wpq1_actionscheduler_claims: finishing file (backup_2022-03-05-1751_Africhild_bd10d00d7e9b-db-table-wpq1_actionscheduler_claims.table.gz - 0.4 KB)
0013.744 (0) Table wpq1_actionscheduler_groups: Total expected rows (approximate): 4
0013.748 (0) Table wpq1_actionscheduler_groups: Total rows added: 4 in 0.00 seconds
0013.750 (0) Table wpq1_actionscheduler_groups: finishing file (backup_2022-03-05-1751_Africhild_bd10d00d7e9b-db-table-wpq1_actionscheduler_groups.table.gz - 0.4 KB)
0013.759 (0) Table wpq1_actionscheduler_logs: Total expected rows (approximate): 93
0013.765 (0) Table wpq1_actionscheduler_logs: Total rows added: 93 in 0.00 seconds
0013.767 (0) Table wpq1_actionscheduler_logs: finishing file (backup_2022-03-05-1751_Africhild_bd10d00d7e9b-db-table-wpq1_actionscheduler_logs.table.gz - 1.5 KB)
0013.775 (0) Table wpq1_ai1ec_event_category_meta: Total expected rows (approximate): 0
0013.778 (0) Table wpq1_ai1ec_event_category_meta: Total rows added: 0 in 0.00 seconds
0013.781 (0) Table wpq1_ai1ec_event_category_meta: finishing file (backup_2022-03-05-1751_Africhild_bd10d00d7e9b-db-table-wpq1_ai1ec_event_category_meta.table.gz - 0.3 KB)
0013.794 (0) Table wpq1_ai1ec_event_instances: Total expected rows (approximate): 5
0013.798 (0) Table wpq1_ai1ec_event_instances: Total rows added: 5 in 0.00 seconds
0013.800 (0) Table wpq1_ai1ec_event_instances: finishing file (backup_2022-03-05-1751_Africhild_bd10d00d7e9b-db-table-wpq1_ai1ec_event_instances.table.gz - 0.4 KB)
0013.807 (0) Table wpq1_ai1ec_events: Total expected rows (approximate): 5
0013.811 (0) Table wpq1_ai1ec_events: Total rows added: 5 in 0.00 seconds
0013.814 (0) Table wpq1_ai1ec_events: finishing file (backup_2022-03-05-1751_Africhild_bd10d00d7e9b-db-table-wpq1_ai1ec_events.table.gz - 1 KB)
0013.823 (0) Table wpq1_download_log: Total expected rows (approximate): 0
0013.827 (0) Table wpq1_download_log: Total rows added: 1 in 0.00 seconds
0013.830 (0) Table wpq1_download_log: finishing file (backup_2022-03-05-1751_Africhild_bd10d00d7e9b-db-table-wpq1_download_log.table.gz - 0.6 KB)
0013.838 (0) Table wpq1_wc_download_log: Total expected rows (approximate): 0
0013.843 (0) Table wpq1_wc_download_log: Total rows added: 0 in 0.00 seconds
0013.846 (0) Table wpq1_wc_download_log: finishing file (backup_2022-03-05-1751_Africhild_bd10d00d7e9b-db-table-wpq1_wc_download_log.table.gz - 0.4 KB)
0013.856 (0) Table wpq1_wc_product_meta_lookup: Total expected rows (approximate): 3
0013.861 (0) Table wpq1_wc_product_meta_lookup: Total rows added: 3 in 0.00 seconds
0013.864 (0) Table wpq1_wc_product_meta_lookup: finishing file (backup_2022-03-05-1751_Africhild_bd10d00d7e9b-db-table-wpq1_wc_product_meta_lookup.table.gz - 0.5 KB)
0013.874 (0) Table wpq1_wc_webhooks: Total expected rows (approximate): 0
0013.877 (0) Table wpq1_wc_webhooks: Total rows added: 0 in 0.00 seconds
0013.881 (0) Table wpq1_wc_webhooks: finishing file (backup_2022-03-05-1751_Africhild_bd10d00d7e9b-db-table-wpq1_wc_webhooks.table.gz - 0.5 KB)
0013.892 (0) Table wpq1_wd_fb_data: Total expected rows (approximate): 13
0013.900 (0) Table wpq1_wd_fb_data: Total rows added: 13 in 0.01 seconds
0013.903 (0) Table wpq1_wd_fb_data: finishing file (backup_2022-03-05-1751_Africhild_bd10d00d7e9b-db-table-wpq1_wd_fb_data.table.gz - 6.1 KB)
0013.913 (0) Table wpq1_wd_fb_info: Total expected rows (approximate): 0
0013.919 (0) Table wpq1_wd_fb_info: Total rows added: 1 in 0.00 seconds
0013.922 (0) Table wpq1_wd_fb_info: finishing file (backup_2022-03-05-1751_Africhild_bd10d00d7e9b-db-table-wpq1_wd_fb_info.table.gz - 1.4 KB)
0013.931 (0) Table wpq1_wd_fb_option: Total expected rows (approximate): 0
0013.935 (0) Table wpq1_wd_fb_option: Total rows added: 1 in 0.00 seconds
0013.940 (0) Table wpq1_wd_fb_option: finishing file (backup_2022-03-05-1751_Africhild_bd10d00d7e9b-db-table-wpq1_wd_fb_option.table.gz - 0.4 KB)
0013.948 (0) Table wpq1_wd_fb_shortcode: Total expected rows (approximate): 0
0013.951 (0) Table wpq1_wd_fb_shortcode: Total rows added: 0 in 0.00 seconds
0013.954 (0) Table wpq1_wd_fb_shortcode: finishing file (backup_2022-03-05-1751_Africhild_bd10d00d7e9b-db-table-wpq1_wd_fb_shortcode.table.gz - 0.3 KB)
0013.968 (0) Table wpq1_wd_fb_theme: Total expected rows (approximate): 0
0013.971 (0) Table wpq1_wd_fb_theme: Total rows added: 1 in 0.00 seconds
0013.974 (0) Table wpq1_wd_fb_theme: finishing file (backup_2022-03-05-1751_Africhild_bd10d00d7e9b-db-table-wpq1_wd_fb_theme.table.gz - 1.9 KB)
0013.982 (0) Table wpq1_wfblockediplog: Total expected rows (approximate): 14
0013.987 (0) Table wpq1_wfblockediplog: Total rows added: 14 in 0.00 seconds
0013.990 (0) Table wpq1_wfblockediplog: finishing file (backup_2022-03-05-1751_Africhild_bd10d00d7e9b-db-table-wpq1_wfblockediplog.table.gz - 0.6 KB)
0013.998 (0) Table wpq1_wfblocks7: Total expected rows (approximate): 0
0014.010 (0) Table wpq1_wfblocks7: Total rows added: 0 in 0.01 seconds
0014.043 (0) Table wpq1_wfblocks7: finishing file (backup_2022-03-05-1751_Africhild_bd10d00d7e9b-db-table-wpq1_wfblocks7.table.gz - 0.4 KB)
0014.053 (0) Table wpq1_wfconfig: Total expected rows (approximate): 267
0015.066 (0) Table wpq1_wfconfig: Total rows added: 267 in 1.01 seconds
0015.073 (0) Table wpq1_wfconfig: finishing file (backup_2022-03-05-1751_Africhild_bd10d00d7e9b-db-table-wpq1_wfconfig.table.gz - 403.3 KB)
0015.081 (0) Table wpq1_wfcrawlers: Total expected rows (approximate): 25
0015.085 (0) Table wpq1_wfcrawlers: Total rows added: 25 in 0.00 seconds
0015.088 (0) Table wpq1_wfcrawlers: finishing file (backup_2022-03-05-1751_Africhild_bd10d00d7e9b-db-table-wpq1_wfcrawlers.table.gz - 0.8 KB)
0015.095 (0) Table wpq1_wffilechanges: Total expected rows (approximate): 0
0015.098 (0) Table wpq1_wffilechanges: Total rows added: 0 in 0.00 seconds
0015.101 (0) Table wpq1_wffilechanges: finishing file (backup_2022-03-05-1751_Africhild_bd10d00d7e9b-db-table-wpq1_wffilechanges.table.gz - 0.3 KB)
0015.124 (0) Table wpq1_wffilemods: Total expected rows (approximate): 15481
0016.156 (0) Table wpq1_wffilemods: binary mysqldump finished (writes: 37) in 1.03 seconds
0016.166 (0) Table wpq1_wffilemods: finishing file (backup_2022-03-05-1751_Africhild_bd10d00d7e9b-db-table-wpq1_wffilemods.table.gz - 1218.4 KB)
0016.193 (0) Table wpq1_wfhits: Total expected rows (approximate): 64
0016.204 (0) Table wpq1_wfhits: Total rows added: 64 in 0.01 seconds
0016.216 (0) Table wpq1_wfhits: finishing file (backup_2022-03-05-1751_Africhild_bd10d00d7e9b-db-table-wpq1_wfhits.table.gz - 3.3 KB)
0016.225 (0) Table wpq1_wfhoover: Total expected rows (approximate): 0
0016.234 (0) Table wpq1_wfhoover: Total rows added: 0 in 0.01 seconds
0016.241 (0) Table wpq1_wfhoover: finishing file (backup_2022-03-05-1751_Africhild_bd10d00d7e9b-db-table-wpq1_wfhoover.table.gz - 0.3 KB)
0016.282 (0) Table wpq1_wfissues: Total expected rows (approximate): 21
0016.302 (0) Table wpq1_wfissues: Total rows added: 21 in 0.01 seconds
0016.309 (0) Table wpq1_wfissues: finishing file (backup_2022-03-05-1751_Africhild_bd10d00d7e9b-db-table-wpq1_wfissues.table.gz - 5.7 KB)
0016.318 (0) Table wpq1_wfknownfilelist: Total expected rows (approximate): 15483
0016.450 (0) Table wpq1_wfknownfilelist: binary mysqldump finished (writes: 29) in 0.11 seconds
0016.456 (0) Table wpq1_wfknownfilelist: finishing file (backup_2022-03-05-1751_Africhild_bd10d00d7e9b-db-table-wpq1_wfknownfilelist.table.gz - 158.8 KB)
0016.503 (0) Table wpq1_wflivetraffichuman: Total expected rows (approximate): 0
0016.506 (0) Table wpq1_wflivetraffichuman: Total rows added: 0 in 0.00 seconds
0016.511 (0) Table wpq1_wflivetraffichuman: finishing file (backup_2022-03-05-1751_Africhild_bd10d00d7e9b-db-table-wpq1_wflivetraffichuman.table.gz - 0.3 KB)
0016.520 (0) Table wpq1_wflocs: Total expected rows (approximate): 0
0016.525 (0) Table wpq1_wflocs: Total rows added: 0 in 0.00 seconds
0016.529 (0) Table wpq1_wflocs: finishing file (backup_2022-03-05-1751_Africhild_bd10d00d7e9b-db-table-wpq1_wflocs.table.gz - 0.4 KB)
0016.540 (0) Table wpq1_wflogins: Total expected rows (approximate): 803
0016.576 (0) Table wpq1_wflogins: Total rows added: 803 in 0.03 seconds
0016.596 (0) Table wpq1_wflogins: finishing file (backup_2022-03-05-1751_Africhild_bd10d00d7e9b-db-table-wpq1_wflogins.table.gz - 18.5 KB)
0016.605 (0) Table wpq1_wfls_2fa_secrets: Total expected rows (approximate): 0
0016.611 (0) Table wpq1_wfls_2fa_secrets: Total rows added: 0 in 0.00 seconds
0016.615 (0) Table wpq1_wfls_2fa_secrets: finishing file (backup_2022-03-05-1751_Africhild_bd10d00d7e9b-db-table-wpq1_wfls_2fa_secrets.table.gz - 0.4 KB)
0016.623 (0) Table wpq1_wfls_settings: Total expected rows (approximate): 19
0016.627 (0) Table wpq1_wfls_settings: Total rows added: 19 in 0.00 seconds
0016.630 (0) Table wpq1_wfls_settings: finishing file (backup_2022-03-05-1751_Africhild_bd10d00d7e9b-db-table-wpq1_wfls_settings.table.gz - 0.7 KB)
0016.638 (0) Table wpq1_wfnotifications: Total expected rows (approximate): 10
0016.641 (0) Table wpq1_wfnotifications: Total rows added: 10 in 0.00 seconds
0016.644 (0) Table wpq1_wfnotifications: finishing file (backup_2022-03-05-1751_Africhild_bd10d00d7e9b-db-table-wpq1_wfnotifications.table.gz - 1.1 KB)
0016.651 (0) Table wpq1_wfpendingissues: Total expected rows (approximate): 2
0016.655 (0) Table wpq1_wfpendingissues: Total rows added: 2 in 0.00 seconds
0016.658 (0) Table wpq1_wfpendingissues: finishing file (backup_2022-03-05-1751_Africhild_bd10d00d7e9b-db-table-wpq1_wfpendingissues.table.gz - 1.2 KB)
0016.665 (0) Table wpq1_wfreversecache: Total expected rows (approximate): 7
0016.669 (0) Table wpq1_wfreversecache: Total rows added: 7 in 0.00 seconds
0016.672 (0) Table wpq1_wfreversecache: finishing file (backup_2022-03-05-1751_Africhild_bd10d00d7e9b-db-table-wpq1_wfreversecache.table.gz - 0.5 KB)
0016.686 (0) Table wpq1_wfsnipcache: Total expected rows (approximate): 0
0016.690 (0) Table wpq1_wfsnipcache: Total rows added: 0 in 0.00 seconds
0016.696 (0) Table wpq1_wfsnipcache: finishing file (backup_2022-03-05-1751_Africhild_bd10d00d7e9b-db-table-wpq1_wfsnipcache.table.gz - 0.4 KB)
0016.704 (0) Table wpq1_wfstatus: Total expected rows (approximate): 957
0016.744 (0) Table wpq1_wfstatus: Total rows added: 957 in 0.04 seconds
0016.749 (0) Table wpq1_wfstatus: finishing file (backup_2022-03-05-1751_Africhild_bd10d00d7e9b-db-table-wpq1_wfstatus.table.gz - 15.8 KB)
0016.757 (0) Table wpq1_wftrafficrates: Total expected rows (approximate): 0
0016.761 (0) Table wpq1_wftrafficrates: Total rows added: 0 in 0.00 seconds
0016.763 (0) Table wpq1_wftrafficrates: finishing file (backup_2022-03-05-1751_Africhild_bd10d00d7e9b-db-table-wpq1_wftrafficrates.table.gz - 0.3 KB)
0016.771 (0) Table wpq1_woocommerce_api_keys: Total expected rows (approximate): 0
0016.774 (0) Table wpq1_woocommerce_api_keys: Total rows added: 0 in 0.00 seconds
0016.777 (0) Table wpq1_woocommerce_api_keys: finishing file (backup_2022-03-05-1751_Africhild_bd10d00d7e9b-db-table-wpq1_woocommerce_api_keys.table.gz - 0.4 KB)
0016.785 (0) Table wpq1_woocommerce_attribute_taxonomies: Total expected rows (approximate): 0
0016.788 (0) Table wpq1_woocommerce_attribute_taxonomies: Total rows added: 0 in 0.00 seconds
0016.792 (0) Table wpq1_woocommerce_attribute_taxonomies: finishing file (backup_2022-03-05-1751_Africhild_bd10d00d7e9b-db-table-wpq1_woocommerce_attribute_taxonomies.table.gz - 0.4 KB)
0016.800 (0) Table wpq1_woocommerce_downloadable_product_permissions: Total expected rows (approximate): 0
0016.816 (0) Table wpq1_woocommerce_downloadable_product_permissions: Total rows added: 0 in 0.00 seconds
0016.845 (0) Table wpq1_woocommerce_downloadable_product_permissions: finishing file (backup_2022-03-05-1751_Africhild_bd10d00d7e9b-db-table-wpq1_woocommerce_downloadable_product_permissions.table.gz - 0.5 KB)
0016.856 (0) Table wpq1_woocommerce_log: Total expected rows (approximate): 0
0016.864 (0) Table wpq1_woocommerce_log: Total rows added: 0 in 0.00 seconds
0016.868 (0) Table wpq1_woocommerce_log: finishing file (backup_2022-03-05-1751_Africhild_bd10d00d7e9b-db-table-wpq1_woocommerce_log.table.gz - 0.4 KB)
0016.877 (0) Table wpq1_woocommerce_order_itemmeta: Total expected rows (approximate): 0
0016.879 (0) Table wpq1_woocommerce_order_itemmeta: Total rows added: 0 in 0.00 seconds
0016.897 (0) Table wpq1_woocommerce_order_itemmeta: finishing file (backup_2022-03-05-1751_Africhild_bd10d00d7e9b-db-table-wpq1_woocommerce_order_itemmeta.table.gz - 0.4 KB)
0016.906 (0) Table wpq1_woocommerce_order_items: Total expected rows (approximate): 0
0016.910 (0) Table wpq1_woocommerce_order_items: Total rows added: 0 in 0.00 seconds
0016.913 (0) Table wpq1_woocommerce_order_items: finishing file (backup_2022-03-05-1751_Africhild_bd10d00d7e9b-db-table-wpq1_woocommerce_order_items.table.gz - 0.3 KB)
0016.922 (0) Table wpq1_woocommerce_payment_tokenmeta: Total expected rows (approximate): 0
0016.928 (0) Table wpq1_woocommerce_payment_tokenmeta: Total rows added: 0 in 0.00 seconds
0016.931 (0) Table wpq1_woocommerce_payment_tokenmeta: finishing file (backup_2022-03-05-1751_Africhild_bd10d00d7e9b-db-table-wpq1_woocommerce_payment_tokenmeta.table.gz - 0.4 KB)
0016.941 (0) Table wpq1_woocommerce_payment_tokens: Total expected rows (approximate): 0
0016.945 (0) Table wpq1_woocommerce_payment_tokens: Total rows added: 0 in 0.00 seconds
0016.948 (0) Table wpq1_woocommerce_payment_tokens: finishing file (backup_2022-03-05-1751_Africhild_bd10d00d7e9b-db-table-wpq1_woocommerce_payment_tokens.table.gz - 0.4 KB)
0016.957 (0) Table wpq1_woocommerce_sessions: Total expected rows (approximate): 0
0016.961 (0) Table wpq1_woocommerce_sessions: Total rows added: 1 in 0.00 seconds
0016.963 (0) Table wpq1_woocommerce_sessions: finishing file (backup_2022-03-05-1751_Africhild_bd10d00d7e9b-db-table-wpq1_woocommerce_sessions.table.gz - 0.8 KB)
0016.972 (0) Table wpq1_woocommerce_shipping_zone_locations: Total expected rows (approximate): 0
0016.975 (0) Table wpq1_woocommerce_shipping_zone_locations: Total rows added: 0 in 0.00 seconds
0016.978 (0) Table wpq1_woocommerce_shipping_zone_locations: finishing file (backup_2022-03-05-1751_Africhild_bd10d00d7e9b-db-table-wpq1_woocommerce_shipping_zone_locations.table.gz - 0.4 KB)
0017.047 (0) Table wpq1_woocommerce_shipping_zone_methods: Total expected rows (approximate): 0
0017.051 (0) Table wpq1_woocommerce_shipping_zone_methods: Total rows added: 0 in 0.00 seconds
0017.054 (0) Table wpq1_woocommerce_shipping_zone_methods: finishing file (backup_2022-03-05-1751_Africhild_bd10d00d7e9b-db-table-wpq1_woocommerce_shipping_zone_methods.table.gz - 0.4 KB)
0017.062 (0) Table wpq1_woocommerce_shipping_zones: Total expected rows (approximate): 0
0017.065 (0) Table wpq1_woocommerce_shipping_zones: Total rows added: 0 in 0.00 seconds
0017.068 (0) Table wpq1_woocommerce_shipping_zones: finishing file (backup_2022-03-05-1751_Africhild_bd10d00d7e9b-db-table-wpq1_woocommerce_shipping_zones.table.gz - 0.3 KB)
0017.076 (0) Table wpq1_woocommerce_tax_rate_locations: Total expected rows (approximate): 0
0017.080 (0) Table wpq1_woocommerce_tax_rate_locations: Total rows added: 0 in 0.00 seconds
0017.082 (0) Table wpq1_woocommerce_tax_rate_locations: finishing file (backup_2022-03-05-1751_Africhild_bd10d00d7e9b-db-table-wpq1_woocommerce_tax_rate_locations.table.gz - 0.4 KB)
0017.181 (0) Table wpq1_woocommerce_tax_rates: Total expected rows (approximate): 0
0017.184 (0) Table wpq1_woocommerce_tax_rates: Total rows added: 0 in 0.00 seconds
0017.205 (0) Table wpq1_woocommerce_tax_rates: finishing file (backup_2022-03-05-1751_Africhild_bd10d00d7e9b-db-table-wpq1_woocommerce_tax_rates.table.gz - 0.4 KB)
0017.215 (0) Table wpq1_wpforms_tasks_meta: Total expected rows (approximate): 6
0017.220 (0) Table wpq1_wpforms_tasks_meta: Total rows added: 6 in 0.00 seconds
0017.223 (0) Table wpq1_wpforms_tasks_meta: finishing file (backup_2022-03-05-1751_Africhild_bd10d00d7e9b-db-table-wpq1_wpforms_tasks_meta.table.gz - 0.5 KB)
0017.230 (0) backup_2022-03-05-1751_Africhild_bd10d00d7e9b-db-table-wpq1_options.table.gz (1/66): adding to final database dump
0017.272 (0) backup_2022-03-05-1751_Africhild_bd10d00d7e9b-db-table-wpq1_users.table.gz (2/66): adding to final database dump
0017.277 (0) backup_2022-03-05-1751_Africhild_bd10d00d7e9b-db-table-wpq1_usermeta.table.gz (3/66): adding to final database dump
0017.280 (0) backup_2022-03-05-1751_Africhild_bd10d00d7e9b-db-table-wpq1_commentmeta.table.gz (4/66): adding to final database dump
0017.285 (0) backup_2022-03-05-1751_Africhild_bd10d00d7e9b-db-table-wpq1_comments.table.gz (5/66): adding to final database dump
0017.289 (0) backup_2022-03-05-1751_Africhild_bd10d00d7e9b-db-table-wpq1_imagify_files.table.gz (6/66): adding to final database dump
0017.293 (0) backup_2022-03-05-1751_Africhild_bd10d00d7e9b-db-table-wpq1_imagify_folders.table.gz (7/66): adding to final database dump
0017.297 (0) backup_2022-03-05-1751_Africhild_bd10d00d7e9b-db-table-wpq1_links.table.gz (8/66): adding to final database dump
0017.300 (0) backup_2022-03-05-1751_Africhild_bd10d00d7e9b-db-table-wpq1_postmeta.table.gz (9/66): adding to final database dump
0027.288 (0) backup_2022-03-05-1751_Africhild_bd10d00d7e9b-db-table-wpq1_posts.table.gz (10/66): adding to final database dump
0029.696 (0) backup_2022-03-05-1751_Africhild_bd10d00d7e9b-db-table-wpq1_term_relationships.table.gz (11/66): adding to final database dump
0029.700 (0) backup_2022-03-05-1751_Africhild_bd10d00d7e9b-db-table-wpq1_term_taxonomy.table.gz (12/66): adding to final database dump
0029.734 (0) backup_2022-03-05-1751_Africhild_bd10d00d7e9b-db-table-wpq1_termmeta.table.gz (13/66): adding to final database dump
0029.737 (0) backup_2022-03-05-1751_Africhild_bd10d00d7e9b-db-table-wpq1_terms.table.gz (14/66): adding to final database dump
0029.741 (0) backup_2022-03-05-1751_Africhild_bd10d00d7e9b-db-table-wpq1_actionscheduler_actions.table.gz (15/66): adding to final database dump
0029.745 (0) backup_2022-03-05-1751_Africhild_bd10d00d7e9b-db-table-wpq1_actionscheduler_claims.table.gz (16/66): adding to final database dump
0029.749 (0) backup_2022-03-05-1751_Africhild_bd10d00d7e9b-db-table-wpq1_actionscheduler_groups.table.gz (17/66): adding to final database dump
0029.798 (0) backup_2022-03-05-1751_Africhild_bd10d00d7e9b-db-table-wpq1_actionscheduler_logs.table.gz (18/66): adding to final database dump
0029.802 (0) backup_2022-03-05-1751_Africhild_bd10d00d7e9b-db-table-wpq1_ai1ec_event_category_meta.table.gz (19/66): adding to final database dump
0029.805 (0) backup_2022-03-05-1751_Africhild_bd10d00d7e9b-db-table-wpq1_ai1ec_event_instances.table.gz (20/66): adding to final database dump
0029.808 (0) backup_2022-03-05-1751_Africhild_bd10d00d7e9b-db-table-wpq1_ai1ec_events.table.gz (21/66): adding to final database dump
0029.811 (0) backup_2022-03-05-1751_Africhild_bd10d00d7e9b-db-table-wpq1_download_log.table.gz (22/66): adding to final database dump
0029.814 (0) backup_2022-03-05-1751_Africhild_bd10d00d7e9b-db-table-wpq1_wc_download_log.table.gz (23/66): adding to final database dump
0029.817 (0) backup_2022-03-05-1751_Africhild_bd10d00d7e9b-db-table-wpq1_wc_product_meta_lookup.table.gz (24/66): adding to final database dump
0029.820 (0) backup_2022-03-05-1751_Africhild_bd10d00d7e9b-db-table-wpq1_wc_webhooks.table.gz (25/66): adding to final database dump
0029.823 (0) backup_2022-03-05-1751_Africhild_bd10d00d7e9b-db-table-wpq1_wd_fb_data.table.gz (26/66): adding to final database dump
0029.828 (0) backup_2022-03-05-1751_Africhild_bd10d00d7e9b-db-table-wpq1_wd_fb_info.table.gz (27/66): adding to final database dump
0029.831 (0) backup_2022-03-05-1751_Africhild_bd10d00d7e9b-db-table-wpq1_wd_fb_option.table.gz (28/66): adding to final database dump
0029.834 (0) backup_2022-03-05-1751_Africhild_bd10d00d7e9b-db-table-wpq1_wd_fb_shortcode.table.gz (29/66): adding to final database dump
0029.838 (0) backup_2022-03-05-1751_Africhild_bd10d00d7e9b-db-table-wpq1_wd_fb_theme.table.gz (30/66): adding to final database dump
0029.841 (0) backup_2022-03-05-1751_Africhild_bd10d00d7e9b-db-table-wpq1_wfblockediplog.table.gz (31/66): adding to final database dump
0029.845 (0) backup_2022-03-05-1751_Africhild_bd10d00d7e9b-db-table-wpq1_wfblocks7.table.gz (32/66): adding to final database dump
0029.848 (0) backup_2022-03-05-1751_Africhild_bd10d00d7e9b-db-table-wpq1_wfconfig.table.gz (33/66): adding to final database dump
0029.878 (0) backup_2022-03-05-1751_Africhild_bd10d00d7e9b-db-table-wpq1_wfcrawlers.table.gz (34/66): adding to final database dump
0029.883 (0) backup_2022-03-05-1751_Africhild_bd10d00d7e9b-db-table-wpq1_wffilechanges.table.gz (35/66): adding to final database dump
0029.886 (0) backup_2022-03-05-1751_Africhild_bd10d00d7e9b-db-table-wpq1_wffilemods.table.gz (36/66): adding to final database dump
0032.242 (0) backup_2022-03-05-1751_Africhild_bd10d00d7e9b-db-table-wpq1_wfhits.table.gz (37/66): adding to final database dump
0032.247 (0) backup_2022-03-05-1751_Africhild_bd10d00d7e9b-db-table-wpq1_wfhoover.table.gz (38/66): adding to final database dump
0032.250 (0) backup_2022-03-05-1751_Africhild_bd10d00d7e9b-db-table-wpq1_wfissues.table.gz (39/66): adding to final database dump
0032.254 (0) backup_2022-03-05-1751_Africhild_bd10d00d7e9b-db-table-wpq1_wfknownfilelist.table.gz (40/66): adding to final database dump
0033.683 (0) backup_2022-03-05-1751_Africhild_bd10d00d7e9b-db-table-wpq1_wflivetraffichuman.table.gz (41/66): adding to final database dump
0033.689 (0) backup_2022-03-05-1751_Africhild_bd10d00d7e9b-db-table-wpq1_wflocs.table.gz (42/66): adding to final database dump
0033.692 (0) backup_2022-03-05-1751_Africhild_bd10d00d7e9b-db-table-wpq1_wflogins.table.gz (43/66): adding to final database dump
0033.700 (0) backup_2022-03-05-1751_Africhild_bd10d00d7e9b-db-table-wpq1_wfls_2fa_secrets.table.gz (44/66): adding to final database dump
0033.703 (0) backup_2022-03-05-1751_Africhild_bd10d00d7e9b-db-table-wpq1_wfls_settings.table.gz (45/66): adding to final database dump
0033.710 (0) backup_2022-03-05-1751_Africhild_bd10d00d7e9b-db-table-wpq1_wfnotifications.table.gz (46/66): adding to final database dump
0033.714 (0) backup_2022-03-05-1751_Africhild_bd10d00d7e9b-db-table-wpq1_wfpendingissues.table.gz (47/66): adding to final database dump
0033.717 (0) backup_2022-03-05-1751_Africhild_bd10d00d7e9b-db-table-wpq1_wfreversecache.table.gz (48/66): adding to final database dump
0033.721 (0) backup_2022-03-05-1751_Africhild_bd10d00d7e9b-db-table-wpq1_wfsnipcache.table.gz (49/66): adding to final database dump
0033.733 (0) backup_2022-03-05-1751_Africhild_bd10d00d7e9b-db-table-wpq1_wfstatus.table.gz (50/66): adding to final database dump
0033.741 (0) backup_2022-03-05-1751_Africhild_bd10d00d7e9b-db-table-wpq1_wftrafficrates.table.gz (51/66): adding to final database dump
0033.746 (0) backup_2022-03-05-1751_Africhild_bd10d00d7e9b-db-table-wpq1_woocommerce_api_keys.table.gz (52/66): adding to final database dump
0033.751 (0) backup_2022-03-05-1751_Africhild_bd10d00d7e9b-db-table-wpq1_woocommerce_attribute_taxonomies.table.gz (53/66): adding to final database dump
0033.756 (0) backup_2022-03-05-1751_Africhild_bd10d00d7e9b-db-table-wpq1_woocommerce_downloadable_product_permissions.table.gz (54/66): adding to final database dump
0033.761 (0) backup_2022-03-05-1751_Africhild_bd10d00d7e9b-db-table-wpq1_woocommerce_log.table.gz (55/66): adding to final database dump
0033.765 (0) backup_2022-03-05-1751_Africhild_bd10d00d7e9b-db-table-wpq1_woocommerce_order_itemmeta.table.gz (56/66): adding to final database dump
0033.771 (0) backup_2022-03-05-1751_Africhild_bd10d00d7e9b-db-table-wpq1_woocommerce_order_items.table.gz (57/66): adding to final database dump
0033.775 (0) backup_2022-03-05-1751_Africhild_bd10d00d7e9b-db-table-wpq1_woocommerce_payment_tokenmeta.table.gz (58/66): adding to final database dump
0033.778 (0) backup_2022-03-05-1751_Africhild_bd10d00d7e9b-db-table-wpq1_woocommerce_payment_tokens.table.gz (59/66): adding to final database dump
0033.781 (0) backup_2022-03-05-1751_Africhild_bd10d00d7e9b-db-table-wpq1_woocommerce_sessions.table.gz (60/66): adding to final database dump
0033.785 (0) backup_2022-03-05-1751_Africhild_bd10d00d7e9b-db-table-wpq1_woocommerce_shipping_zone_locations.table.gz (61/66): adding to final database dump
0033.798 (0) backup_2022-03-05-1751_Africhild_bd10d00d7e9b-db-table-wpq1_woocommerce_shipping_zone_methods.table.gz (62/66): adding to final database dump
0033.801 (0) backup_2022-03-05-1751_Africhild_bd10d00d7e9b-db-table-wpq1_woocommerce_shipping_zones.table.gz (63/66): adding to final database dump
0033.832 (0) backup_2022-03-05-1751_Africhild_bd10d00d7e9b-db-table-wpq1_woocommerce_tax_rate_locations.table.gz (64/66): adding to final database dump
0033.839 (0) backup_2022-03-05-1751_Africhild_bd10d00d7e9b-db-table-wpq1_woocommerce_tax_rates.table.gz (65/66): adding to final database dump
0033.844 (0) backup_2022-03-05-1751_Africhild_bd10d00d7e9b-db-table-wpq1_wpforms_tasks_meta.table.gz (66/66): adding to final database dump
0034.445 (0) backup_2022-03-05-1751_Africhild_bd10d00d7e9b-db.gz: finished writing out complete database file (7520 KB)
0034.607 (0) Total database tables backed up: 66 (backup_2022-03-05-1751_Africhild_bd10d00d7e9b-db.gz, size: 7728516, sha1: 6e2dea92f6157b6dd2df24df69fec40ba56a74c8, sha256: 3461cb36ba92dd5da57202c9cbf12f7fde98ecc604440b792fd98740e9f6a8b1)
0034.688 (0) backup_2022-03-05-1751_Africhild_bd10d00d7e9b-db.gz: db: This file has not yet been successfully uploaded: will queue
0034.692 (0) Saving backup history. Total backup size: 7.4 MB
0034.752 (0) Requesting upload of the files that have not yet been successfully uploaded (1)
0034.759 (0) Cloud backup selection (1/1): none with instance (1/1) (last)
0034.761 (0) No remote despatch: user chose no remote backup service
0034.763 (0) Recording as successfully uploaded: backup_2022-03-05-1751_Africhild_bd10d00d7e9b-db.gz
0034.766 (0) Prune old backups from local store: nothing to do, since the user disabled local deletion and we are using local backups
0034.768 (0) Resume backup (bd10d00d7e9b, 0): finish run
0034.773 (0) Decremented the semaphore (fd) by 1
0034.777 (0) Semaphore (fd) unlocked
0034.779 (0) There were no errors in the uploads, so the 'resume' event (1) is being unscheduled
0034.783 (0) No email will/can be sent - the user has not configured an email address.
0034.785 (0) The backup apparently succeeded and is now complete
