0000.005 (0) Opened log file at time: Fri, 18 Feb 2022 14:51:23 +0000 on https://www.africhild.or.ug
0000.011 (0) UpdraftPlus WordPress backup plugin (https://updraftplus.com): 1.16.16 WP: 5.2.14 PHP: 7.4.27 (litespeed, Linux webhost05.i3c.co.ug 3.10.0-962.3.2.lve1.5.56.el7.x86_64 #1 SMP Thu May 27 10:10:44 UTC 2021 x86_64) MySQL: 10.2.41-MariaDB-cll-lve WPLANG: en_US Server: LiteSpeed safe_mode: 0 max_execution_time: 900 memory_limit: 256M (used: 63.8M | 65M) multisite: N openssl: OpenSSL 1.1.1m  14 Dec 2021 mcrypt: N LANG:  ZipArchive::addFile: Y
0000.057 (0) Free space on disk containing Updraft's temporary directory: 928212.3 MB
0000.070 (0) Deleting old log file: log.b6af5022b1cd.txt
0000.073 (0) Deleting old log file: log.ab74b1d94072.txt
0000.093 (0) Tasks: Backup files: 1 (schedule: daily) Backup DB:  (schedule: daily)
0000.095 (0) Processed schedules. Combining jobs from identical schedules. Tasks now: Backup files: 1 Backup DB: 1
0000.102 (0) Requesting semaphore lock (fd) (apparently via scheduler: last_scheduled_action_called_at=1645109308, seconds_ago=86575)
0000.106 (0) Set semaphore last lock (fd) time to 2022-02-18 14:51:23
0000.107 (0) Semaphore lock (fd) complete
0000.113 (0) Backup run: resumption=0, nonce=add6f2b57356, file_nonce=add6f2b57356 begun at=1645195883 (0s ago), job type=backup
0000.116 (0) Scheduling a resumption (1) after 300 seconds (1645196183) in case this run gets aborted
0000.300 (0) Checking if we have a zip executable available
0000.302 (0) Testing: /usr/bin/zip
0000.526 (0) Output: zip warning: binziptest/test.zip not found or empty
0000.639 (0) Output: adding: binziptest/subdir1/	(in=0) (out=0) (stored 0%)
0000.646 (0) Output: adding: binziptest/subdir1/subdir2/	(in=0) (out=0) (stored 0%)
0000.648 (0) Output: adding: binziptest/subdir1/subdir2/test.html	(in=131) (out=107) (deflated 18%)
0000.650 (0) Output: total bytes=131, compressed=107 -> 18% savings
0000.686 (0) Output: adding: binziptest/subdir1/subdir2/test2.html	(in=138) (out=113) (deflated 18%)
0000.688 (0) Output: total bytes=269, compressed=220 -> 18% savings
0000.887 (0) Working binary zip found: /usr/bin/zip
0000.891 (0) Zip engine: found/will use a binary zip: /usr/bin/zip
0000.893 (0) Creation of backups of directories: beginning
0000.911 (0) No backup of plugins: excluded by user's options
0000.913 (0) No backup of themes: excluded by user's options
0000.914 (0) No backup of uploads: excluded by user's options
0000.916 (0) No backup of others: excluded by user's options
0000.921 (0) Saving backup status to database (elements: 0)
0000.993 (0) Beginning creation of database dump (WordPress DB)
0001.000 (0) Testing potential mysqldump binary: /usr/bin/mysqldump
0003.791 (0) Output: /*!40103 SET @OLD_TIME_ZONE=@@TIME_ZONE */;\n/*!40103 SET TIME_ZONE='+00:00' */;\n/*!40014 SET @OLD_UNIQUE_CHECKS=@@UNIQUE_CHECKS, UNIQUE_CHECKS=0 */;\n/*!40014 SET @OLD_FOREIGN_KEY_CHECKS=@@FOREIGN_KEY_CHECKS, FOREIGN_KEY_CHECKS=0 */;\n/*!40101 SET @OLD_SQL_MODE=@@SQL_MODE, SQL_MODE='NO_AUTO_VALUE_ON_ZERO' */;\n/*!40111 SET @OLD_SQL_NOTES=@@SQL_NOTES, SQL_NOTES=0 */;\nDROP TABLE IF EXISTS `wpq1_options`;\n/*!40101 SET @saved_cs_client     = @@character_set_client */;\n/*!40101 SET character_set_client = utf8 */;\nC (truncated - 1234 bytes total)
0003.819 (0) Working binary mysqldump found: /usr/bin/mysqldump
0003.884 (0) Table wpq1_options: Total expected rows (approximate): 929
0004.060 (0) Table wpq1_options: Total rows added: 933 in 0.17 seconds
0004.130 (0) Table wpq1_options: finishing file (backup_2022-02-18-1751_Africhild_add6f2b57356-db-table-wpq1_options.table.gz - 211.1 KB)
0004.144 (0) Table wpq1_users: Total expected rows (approximate): 2
0004.149 (0) Table wpq1_users: Total rows added: 2 in 0.00 seconds
0004.183 (0) Table wpq1_users: finishing file (backup_2022-02-18-1751_Africhild_add6f2b57356-db-table-wpq1_users.table.gz - 0.7 KB)
0004.222 (0) Table wpq1_usermeta: Total expected rows (approximate): 77
0004.230 (0) Table wpq1_usermeta: Total rows added: 77 in 0.00 seconds
0004.233 (0) Table wpq1_usermeta: finishing file (backup_2022-02-18-1751_Africhild_add6f2b57356-db-table-wpq1_usermeta.table.gz - 2.4 KB)
0004.246 (0) Table wpq1_commentmeta: Total expected rows (approximate): 60
0004.258 (0) Table wpq1_commentmeta: Total rows added: 63 in 0.01 seconds
0004.261 (0) Table wpq1_commentmeta: finishing file (backup_2022-02-18-1751_Africhild_add6f2b57356-db-table-wpq1_commentmeta.table.gz - 1.3 KB)
0004.299 (0) Table wpq1_comments: Total expected rows (approximate): 20
0004.305 (0) Table wpq1_comments: Total rows added: 21 in 0.00 seconds
0004.309 (0) Table wpq1_comments: finishing file (backup_2022-02-18-1751_Africhild_add6f2b57356-db-table-wpq1_comments.table.gz - 2.9 KB)
0004.318 (0) Table wpq1_imagify_files: Total expected rows (approximate): 0
0004.350 (0) Table wpq1_imagify_files: Total rows added: 0 in 0.00 seconds
0004.353 (0) Table wpq1_imagify_files: finishing file (backup_2022-02-18-1751_Africhild_add6f2b57356-db-table-wpq1_imagify_files.table.gz - 0.5 KB)
0004.362 (0) Table wpq1_imagify_folders: Total expected rows (approximate): 0
0004.365 (0) Table wpq1_imagify_folders: Total rows added: 0 in 0.00 seconds
0004.398 (0) Table wpq1_imagify_folders: finishing file (backup_2022-02-18-1751_Africhild_add6f2b57356-db-table-wpq1_imagify_folders.table.gz - 0.4 KB)
0004.407 (0) Table wpq1_links: Total expected rows (approximate): 0
0004.411 (0) Table wpq1_links: Total rows added: 0 in 0.00 seconds
0004.414 (0) Table wpq1_links: finishing file (backup_2022-02-18-1751_Africhild_add6f2b57356-db-table-wpq1_links.table.gz - 0.4 KB)
0004.449 (0) Table wpq1_postmeta: Total expected rows (approximate): 12512
0012.553 (0) Table wpq1_postmeta: binary mysqldump finished (writes: 101) in 8.10 seconds
0012.560 (0) Table wpq1_postmeta: finishing file (backup_2022-02-18-1751_Africhild_add6f2b57356-db-table-wpq1_postmeta.table.gz - 4227.2 KB)
0012.573 (0) Table wpq1_posts: Total expected rows (approximate): 2015
0013.742 (0) Table wpq1_posts: Total rows added: 2194 in 1.17 seconds
0013.858 (0) Table wpq1_posts: finishing file (backup_2022-02-18-1751_Africhild_add6f2b57356-db-table-wpq1_posts.table.gz - 1255 KB)
0013.889 (0) Table wpq1_term_relationships: Total expected rows (approximate): 271
0013.895 (0) Table wpq1_term_relationships: Total rows added: 286 in 0.00 seconds
0013.899 (0) Table wpq1_term_relationships: finishing file (backup_2022-02-18-1751_Africhild_add6f2b57356-db-table-wpq1_term_relationships.table.gz - 1.2 KB)
0013.921 (0) Table wpq1_term_taxonomy: Total expected rows (approximate): 85
0013.926 (0) Table wpq1_term_taxonomy: Total rows added: 85 in 0.00 seconds
0013.931 (0) Table wpq1_term_taxonomy: finishing file (backup_2022-02-18-1751_Africhild_add6f2b57356-db-table-wpq1_term_taxonomy.table.gz - 1 KB)
0013.942 (0) Table wpq1_termmeta: Total expected rows (approximate): 5
0013.946 (0) Table wpq1_termmeta: Total rows added: 5 in 0.00 seconds
0013.949 (0) Table wpq1_termmeta: finishing file (backup_2022-02-18-1751_Africhild_add6f2b57356-db-table-wpq1_termmeta.table.gz - 0.4 KB)
0013.961 (0) Table wpq1_terms: Total expected rows (approximate): 85
0013.979 (0) Table wpq1_terms: Total rows added: 85 in 0.00 seconds
0013.984 (0) Table wpq1_terms: finishing file (backup_2022-02-18-1751_Africhild_add6f2b57356-db-table-wpq1_terms.table.gz - 1.4 KB)
0014.001 (0) Table wpq1_actionscheduler_actions: Total expected rows (approximate): 33
0014.013 (0) Table wpq1_actionscheduler_actions: Total rows added: 33 in 0.01 seconds
0014.017 (0) Table wpq1_actionscheduler_actions: finishing file (backup_2022-02-18-1751_Africhild_add6f2b57356-db-table-wpq1_actionscheduler_actions.table.gz - 2 KB)
0014.030 (0) Table wpq1_actionscheduler_claims: Total expected rows (approximate): 0
0014.037 (0) Table wpq1_actionscheduler_claims: Total rows added: 0 in 0.01 seconds
0014.043 (0) Table wpq1_actionscheduler_claims: finishing file (backup_2022-02-18-1751_Africhild_add6f2b57356-db-table-wpq1_actionscheduler_claims.table.gz - 0.4 KB)
0014.059 (0) Table wpq1_actionscheduler_groups: Total expected rows (approximate): 4
0014.070 (0) Table wpq1_actionscheduler_groups: Total rows added: 4 in 0.01 seconds
0014.109 (0) Table wpq1_actionscheduler_groups: finishing file (backup_2022-02-18-1751_Africhild_add6f2b57356-db-table-wpq1_actionscheduler_groups.table.gz - 0.4 KB)
0014.127 (0) Table wpq1_actionscheduler_logs: Total expected rows (approximate): 93
0014.142 (0) Table wpq1_actionscheduler_logs: Total rows added: 93 in 0.01 seconds
0014.155 (0) Table wpq1_actionscheduler_logs: finishing file (backup_2022-02-18-1751_Africhild_add6f2b57356-db-table-wpq1_actionscheduler_logs.table.gz - 1.5 KB)
0014.172 (0) Table wpq1_ai1ec_event_category_meta: Total expected rows (approximate): 0
0014.180 (0) Table wpq1_ai1ec_event_category_meta: Total rows added: 0 in 0.00 seconds
0014.187 (0) Table wpq1_ai1ec_event_category_meta: finishing file (backup_2022-02-18-1751_Africhild_add6f2b57356-db-table-wpq1_ai1ec_event_category_meta.table.gz - 0.3 KB)
0014.205 (0) Table wpq1_ai1ec_event_instances: Total expected rows (approximate): 5
0014.210 (0) Table wpq1_ai1ec_event_instances: Total rows added: 5 in 0.00 seconds
0014.216 (0) Table wpq1_ai1ec_event_instances: finishing file (backup_2022-02-18-1751_Africhild_add6f2b57356-db-table-wpq1_ai1ec_event_instances.table.gz - 0.4 KB)
0014.234 (0) Table wpq1_ai1ec_events: Total expected rows (approximate): 5
0014.242 (0) Table wpq1_ai1ec_events: Total rows added: 5 in 0.01 seconds
0014.246 (0) Table wpq1_ai1ec_events: finishing file (backup_2022-02-18-1751_Africhild_add6f2b57356-db-table-wpq1_ai1ec_events.table.gz - 1 KB)
0014.262 (0) Table wpq1_download_log: Total expected rows (approximate): 0
0014.270 (0) Table wpq1_download_log: Total rows added: 1 in 0.00 seconds
0014.276 (0) Table wpq1_download_log: finishing file (backup_2022-02-18-1751_Africhild_add6f2b57356-db-table-wpq1_download_log.table.gz - 0.6 KB)
0014.298 (0) Table wpq1_wc_download_log: Total expected rows (approximate): 0
0014.305 (0) Table wpq1_wc_download_log: Total rows added: 0 in 0.00 seconds
0014.311 (0) Table wpq1_wc_download_log: finishing file (backup_2022-02-18-1751_Africhild_add6f2b57356-db-table-wpq1_wc_download_log.table.gz - 0.4 KB)
0014.327 (0) Table wpq1_wc_product_meta_lookup: Total expected rows (approximate): 3
0014.332 (0) Table wpq1_wc_product_meta_lookup: Total rows added: 3 in 0.00 seconds
0014.336 (0) Table wpq1_wc_product_meta_lookup: finishing file (backup_2022-02-18-1751_Africhild_add6f2b57356-db-table-wpq1_wc_product_meta_lookup.table.gz - 0.5 KB)
0014.349 (0) Table wpq1_wc_webhooks: Total expected rows (approximate): 0
0014.357 (0) Table wpq1_wc_webhooks: Total rows added: 0 in 0.00 seconds
0014.366 (0) Table wpq1_wc_webhooks: finishing file (backup_2022-02-18-1751_Africhild_add6f2b57356-db-table-wpq1_wc_webhooks.table.gz - 0.5 KB)
0014.385 (0) Table wpq1_wd_fb_data: Total expected rows (approximate): 13
0014.396 (0) Table wpq1_wd_fb_data: Total rows added: 13 in 0.01 seconds
0014.400 (0) Table wpq1_wd_fb_data: finishing file (backup_2022-02-18-1751_Africhild_add6f2b57356-db-table-wpq1_wd_fb_data.table.gz - 6.1 KB)
0014.409 (0) Table wpq1_wd_fb_info: Total expected rows (approximate): 0
0014.418 (0) Table wpq1_wd_fb_info: Total rows added: 1 in 0.01 seconds
0014.431 (0) Table wpq1_wd_fb_info: finishing file (backup_2022-02-18-1751_Africhild_add6f2b57356-db-table-wpq1_wd_fb_info.table.gz - 1.4 KB)
0014.444 (0) Table wpq1_wd_fb_option: Total expected rows (approximate): 0
0014.449 (0) Table wpq1_wd_fb_option: Total rows added: 1 in 0.00 seconds
0014.452 (0) Table wpq1_wd_fb_option: finishing file (backup_2022-02-18-1751_Africhild_add6f2b57356-db-table-wpq1_wd_fb_option.table.gz - 0.4 KB)
0014.473 (0) Table wpq1_wd_fb_shortcode: Total expected rows (approximate): 0
0014.477 (0) Table wpq1_wd_fb_shortcode: Total rows added: 0 in 0.00 seconds
0014.482 (0) Table wpq1_wd_fb_shortcode: finishing file (backup_2022-02-18-1751_Africhild_add6f2b57356-db-table-wpq1_wd_fb_shortcode.table.gz - 0.3 KB)
0014.499 (0) Table wpq1_wd_fb_theme: Total expected rows (approximate): 0
0014.507 (0) Table wpq1_wd_fb_theme: Total rows added: 1 in 0.00 seconds
0014.516 (0) Table wpq1_wd_fb_theme: finishing file (backup_2022-02-18-1751_Africhild_add6f2b57356-db-table-wpq1_wd_fb_theme.table.gz - 1.9 KB)
0014.530 (0) Table wpq1_wfblockediplog: Total expected rows (approximate): 34
0014.537 (0) Table wpq1_wfblockediplog: Total rows added: 34 in 0.00 seconds
0014.542 (0) Table wpq1_wfblockediplog: finishing file (backup_2022-02-18-1751_Africhild_add6f2b57356-db-table-wpq1_wfblockediplog.table.gz - 0.8 KB)
0014.557 (0) Table wpq1_wfblocks7: Total expected rows (approximate): 0
0014.567 (0) Table wpq1_wfblocks7: Total rows added: 0 in 0.00 seconds
0014.571 (0) Table wpq1_wfblocks7: finishing file (backup_2022-02-18-1751_Africhild_add6f2b57356-db-table-wpq1_wfblocks7.table.gz - 0.4 KB)
0014.590 (0) Table wpq1_wfconfig: Total expected rows (approximate): 267
0015.616 (0) Table wpq1_wfconfig: Total rows added: 267 in 1.02 seconds
0015.626 (0) Table wpq1_wfconfig: finishing file (backup_2022-02-18-1751_Africhild_add6f2b57356-db-table-wpq1_wfconfig.table.gz - 403.1 KB)
0015.639 (0) Table wpq1_wfcrawlers: Total expected rows (approximate): 28
0015.644 (0) Table wpq1_wfcrawlers: Total rows added: 28 in 0.00 seconds
0015.648 (0) Table wpq1_wfcrawlers: finishing file (backup_2022-02-18-1751_Africhild_add6f2b57356-db-table-wpq1_wfcrawlers.table.gz - 0.8 KB)
0015.660 (0) Table wpq1_wffilechanges: Total expected rows (approximate): 0
0015.663 (0) Table wpq1_wffilechanges: Total rows added: 0 in 0.00 seconds
0015.667 (0) Table wpq1_wffilechanges: finishing file (backup_2022-02-18-1751_Africhild_add6f2b57356-db-table-wpq1_wffilechanges.table.gz - 0.3 KB)
0015.678 (0) Table wpq1_wffilemods: Total expected rows (approximate): 15480
0016.965 (0) Table wpq1_wffilemods: binary mysqldump finished (writes: 37) in 1.29 seconds
0016.979 (0) Table wpq1_wffilemods: finishing file (backup_2022-02-18-1751_Africhild_add6f2b57356-db-table-wpq1_wffilemods.table.gz - 1218.3 KB)
0017.011 (0) Table wpq1_wfhits: Total expected rows (approximate): 106
0017.045 (0) Table wpq1_wfhits: Total rows added: 106 in 0.02 seconds
0017.051 (0) Table wpq1_wfhits: finishing file (backup_2022-02-18-1751_Africhild_add6f2b57356-db-table-wpq1_wfhits.table.gz - 4.9 KB)
0017.063 (0) Table wpq1_wfhoover: Total expected rows (approximate): 0
0017.068 (0) Table wpq1_wfhoover: Total rows added: 0 in 0.00 seconds
0017.072 (0) Table wpq1_wfhoover: finishing file (backup_2022-02-18-1751_Africhild_add6f2b57356-db-table-wpq1_wfhoover.table.gz - 0.3 KB)
0017.091 (0) Table wpq1_wfissues: Total expected rows (approximate): 21
0017.098 (0) Table wpq1_wfissues: Total rows added: 21 in 0.01 seconds
0017.101 (0) Table wpq1_wfissues: finishing file (backup_2022-02-18-1751_Africhild_add6f2b57356-db-table-wpq1_wfissues.table.gz - 5.7 KB)
0017.116 (0) Table wpq1_wfknownfilelist: Total expected rows (approximate): 15482
0017.232 (0) Table wpq1_wfknownfilelist: binary mysqldump finished (writes: 29) in 0.11 seconds
0017.238 (0) Table wpq1_wfknownfilelist: finishing file (backup_2022-02-18-1751_Africhild_add6f2b57356-db-table-wpq1_wfknownfilelist.table.gz - 158.8 KB)
0017.251 (0) Table wpq1_wflivetraffichuman: Total expected rows (approximate): 0
0017.257 (0) Table wpq1_wflivetraffichuman: Total rows added: 0 in 0.00 seconds
0017.265 (0) Table wpq1_wflivetraffichuman: finishing file (backup_2022-02-18-1751_Africhild_add6f2b57356-db-table-wpq1_wflivetraffichuman.table.gz - 0.3 KB)
0017.282 (0) Table wpq1_wflocs: Total expected rows (approximate): 0
0017.287 (0) Table wpq1_wflocs: Total rows added: 0 in 0.00 seconds
0017.292 (0) Table wpq1_wflocs: finishing file (backup_2022-02-18-1751_Africhild_add6f2b57356-db-table-wpq1_wflocs.table.gz - 0.4 KB)
0017.307 (0) Table wpq1_wflogins: Total expected rows (approximate): 803
0017.344 (0) Table wpq1_wflogins: Total rows added: 803 in 0.04 seconds
0017.367 (0) Table wpq1_wflogins: finishing file (backup_2022-02-18-1751_Africhild_add6f2b57356-db-table-wpq1_wflogins.table.gz - 18.5 KB)
0017.379 (0) Table wpq1_wfls_2fa_secrets: Total expected rows (approximate): 0
0017.383 (0) Table wpq1_wfls_2fa_secrets: Total rows added: 0 in 0.00 seconds
0017.386 (0) Table wpq1_wfls_2fa_secrets: finishing file (backup_2022-02-18-1751_Africhild_add6f2b57356-db-table-wpq1_wfls_2fa_secrets.table.gz - 0.4 KB)
0017.415 (0) Table wpq1_wfls_settings: Total expected rows (approximate): 19
0017.427 (0) Table wpq1_wfls_settings: Total rows added: 19 in 0.01 seconds
0017.432 (0) Table wpq1_wfls_settings: finishing file (backup_2022-02-18-1751_Africhild_add6f2b57356-db-table-wpq1_wfls_settings.table.gz - 0.7 KB)
0017.445 (0) Table wpq1_wfnotifications: Total expected rows (approximate): 10
0017.455 (0) Table wpq1_wfnotifications: Total rows added: 10 in 0.00 seconds
0017.460 (0) Table wpq1_wfnotifications: finishing file (backup_2022-02-18-1751_Africhild_add6f2b57356-db-table-wpq1_wfnotifications.table.gz - 1.1 KB)
0017.476 (0) Table wpq1_wfpendingissues: Total expected rows (approximate): 2
0017.483 (0) Table wpq1_wfpendingissues: Total rows added: 2 in 0.00 seconds
0017.489 (0) Table wpq1_wfpendingissues: finishing file (backup_2022-02-18-1751_Africhild_add6f2b57356-db-table-wpq1_wfpendingissues.table.gz - 1.2 KB)
0017.518 (0) Table wpq1_wfreversecache: Total expected rows (approximate): 3
0017.524 (0) Table wpq1_wfreversecache: Total rows added: 3 in 0.00 seconds
0017.529 (0) Table wpq1_wfreversecache: finishing file (backup_2022-02-18-1751_Africhild_add6f2b57356-db-table-wpq1_wfreversecache.table.gz - 0.4 KB)
0017.544 (0) Table wpq1_wfsnipcache: Total expected rows (approximate): 0
0017.549 (0) Table wpq1_wfsnipcache: Total rows added: 0 in 0.00 seconds
0017.553 (0) Table wpq1_wfsnipcache: finishing file (backup_2022-02-18-1751_Africhild_add6f2b57356-db-table-wpq1_wfsnipcache.table.gz - 0.4 KB)
0017.562 (0) Table wpq1_wfstatus: Total expected rows (approximate): 951
0017.592 (0) Table wpq1_wfstatus: Total rows added: 951 in 0.03 seconds
0017.595 (0) Table wpq1_wfstatus: finishing file (backup_2022-02-18-1751_Africhild_add6f2b57356-db-table-wpq1_wfstatus.table.gz - 15.4 KB)
0017.608 (0) Table wpq1_wftrafficrates: Total expected rows (approximate): 0
0017.612 (0) Table wpq1_wftrafficrates: Total rows added: 0 in 0.00 seconds
0017.618 (0) Table wpq1_wftrafficrates: finishing file (backup_2022-02-18-1751_Africhild_add6f2b57356-db-table-wpq1_wftrafficrates.table.gz - 0.3 KB)
0017.630 (0) Table wpq1_woocommerce_api_keys: Total expected rows (approximate): 0
0017.636 (0) Table wpq1_woocommerce_api_keys: Total rows added: 0 in 0.00 seconds
0017.644 (0) Table wpq1_woocommerce_api_keys: finishing file (backup_2022-02-18-1751_Africhild_add6f2b57356-db-table-wpq1_woocommerce_api_keys.table.gz - 0.4 KB)
0017.661 (0) Table wpq1_woocommerce_attribute_taxonomies: Total expected rows (approximate): 0
0017.666 (0) Table wpq1_woocommerce_attribute_taxonomies: Total rows added: 0 in 0.00 seconds
0017.670 (0) Table wpq1_woocommerce_attribute_taxonomies: finishing file (backup_2022-02-18-1751_Africhild_add6f2b57356-db-table-wpq1_woocommerce_attribute_taxonomies.table.gz - 0.4 KB)
0017.680 (0) Table wpq1_woocommerce_downloadable_product_permissions: Total expected rows (approximate): 0
0017.685 (0) Table wpq1_woocommerce_downloadable_product_permissions: Total rows added: 0 in 0.00 seconds
0017.688 (0) Table wpq1_woocommerce_downloadable_product_permissions: finishing file (backup_2022-02-18-1751_Africhild_add6f2b57356-db-table-wpq1_woocommerce_downloadable_product_permissions.table.gz - 0.5 KB)
0017.699 (0) Table wpq1_woocommerce_log: Total expected rows (approximate): 0
0017.702 (0) Table wpq1_woocommerce_log: Total rows added: 0 in 0.00 seconds
0017.705 (0) Table wpq1_woocommerce_log: finishing file (backup_2022-02-18-1751_Africhild_add6f2b57356-db-table-wpq1_woocommerce_log.table.gz - 0.4 KB)
0017.717 (0) Table wpq1_woocommerce_order_itemmeta: Total expected rows (approximate): 0
0017.722 (0) Table wpq1_woocommerce_order_itemmeta: Total rows added: 0 in 0.00 seconds
0017.725 (0) Table wpq1_woocommerce_order_itemmeta: finishing file (backup_2022-02-18-1751_Africhild_add6f2b57356-db-table-wpq1_woocommerce_order_itemmeta.table.gz - 0.4 KB)
0017.740 (0) Table wpq1_woocommerce_order_items: Total expected rows (approximate): 0
0017.743 (0) Table wpq1_woocommerce_order_items: Total rows added: 0 in 0.00 seconds
0017.746 (0) Table wpq1_woocommerce_order_items: finishing file (backup_2022-02-18-1751_Africhild_add6f2b57356-db-table-wpq1_woocommerce_order_items.table.gz - 0.3 KB)
0017.760 (0) Table wpq1_woocommerce_payment_tokenmeta: Total expected rows (approximate): 0
0017.769 (0) Table wpq1_woocommerce_payment_tokenmeta: Total rows added: 0 in 0.00 seconds
0017.773 (0) Table wpq1_woocommerce_payment_tokenmeta: finishing file (backup_2022-02-18-1751_Africhild_add6f2b57356-db-table-wpq1_woocommerce_payment_tokenmeta.table.gz - 0.4 KB)
0017.785 (0) Table wpq1_woocommerce_payment_tokens: Total expected rows (approximate): 0
0017.788 (0) Table wpq1_woocommerce_payment_tokens: Total rows added: 0 in 0.00 seconds
0017.792 (0) Table wpq1_woocommerce_payment_tokens: finishing file (backup_2022-02-18-1751_Africhild_add6f2b57356-db-table-wpq1_woocommerce_payment_tokens.table.gz - 0.4 KB)
0017.803 (0) Table wpq1_woocommerce_sessions: Total expected rows (approximate): 0
0017.807 (0) Table wpq1_woocommerce_sessions: Total rows added: 1 in 0.00 seconds
0017.810 (0) Table wpq1_woocommerce_sessions: finishing file (backup_2022-02-18-1751_Africhild_add6f2b57356-db-table-wpq1_woocommerce_sessions.table.gz - 0.8 KB)
0017.827 (0) Table wpq1_woocommerce_shipping_zone_locations: Total expected rows (approximate): 0
0017.832 (0) Table wpq1_woocommerce_shipping_zone_locations: Total rows added: 0 in 0.00 seconds
0017.835 (0) Table wpq1_woocommerce_shipping_zone_locations: finishing file (backup_2022-02-18-1751_Africhild_add6f2b57356-db-table-wpq1_woocommerce_shipping_zone_locations.table.gz - 0.4 KB)
0017.851 (0) Table wpq1_woocommerce_shipping_zone_methods: Total expected rows (approximate): 0
0017.857 (0) Table wpq1_woocommerce_shipping_zone_methods: Total rows added: 0 in 0.00 seconds
0017.864 (0) Table wpq1_woocommerce_shipping_zone_methods: finishing file (backup_2022-02-18-1751_Africhild_add6f2b57356-db-table-wpq1_woocommerce_shipping_zone_methods.table.gz - 0.4 KB)
0017.879 (0) Table wpq1_woocommerce_shipping_zones: Total expected rows (approximate): 0
0017.885 (0) Table wpq1_woocommerce_shipping_zones: Total rows added: 0 in 0.00 seconds
0017.890 (0) Table wpq1_woocommerce_shipping_zones: finishing file (backup_2022-02-18-1751_Africhild_add6f2b57356-db-table-wpq1_woocommerce_shipping_zones.table.gz - 0.3 KB)
0017.907 (0) Table wpq1_woocommerce_tax_rate_locations: Total expected rows (approximate): 0
0017.911 (0) Table wpq1_woocommerce_tax_rate_locations: Total rows added: 0 in 0.00 seconds
0017.914 (0) Table wpq1_woocommerce_tax_rate_locations: finishing file (backup_2022-02-18-1751_Africhild_add6f2b57356-db-table-wpq1_woocommerce_tax_rate_locations.table.gz - 0.4 KB)
0017.926 (0) Table wpq1_woocommerce_tax_rates: Total expected rows (approximate): 0
0017.930 (0) Table wpq1_woocommerce_tax_rates: Total rows added: 0 in 0.00 seconds
0017.934 (0) Table wpq1_woocommerce_tax_rates: finishing file (backup_2022-02-18-1751_Africhild_add6f2b57356-db-table-wpq1_woocommerce_tax_rates.table.gz - 0.4 KB)
0017.943 (0) Table wpq1_wpforms_tasks_meta: Total expected rows (approximate): 6
0017.948 (0) Table wpq1_wpforms_tasks_meta: Total rows added: 6 in 0.00 seconds
0017.951 (0) Table wpq1_wpforms_tasks_meta: finishing file (backup_2022-02-18-1751_Africhild_add6f2b57356-db-table-wpq1_wpforms_tasks_meta.table.gz - 0.5 KB)
0017.963 (0) backup_2022-02-18-1751_Africhild_add6f2b57356-db-table-wpq1_options.table.gz (1/66): adding to final database dump
0018.081 (0) backup_2022-02-18-1751_Africhild_add6f2b57356-db-table-wpq1_users.table.gz (2/66): adding to final database dump
0018.087 (0) backup_2022-02-18-1751_Africhild_add6f2b57356-db-table-wpq1_usermeta.table.gz (3/66): adding to final database dump
0018.126 (0) backup_2022-02-18-1751_Africhild_add6f2b57356-db-table-wpq1_commentmeta.table.gz (4/66): adding to final database dump
0018.131 (0) backup_2022-02-18-1751_Africhild_add6f2b57356-db-table-wpq1_comments.table.gz (5/66): adding to final database dump
0018.165 (0) backup_2022-02-18-1751_Africhild_add6f2b57356-db-table-wpq1_imagify_files.table.gz (6/66): adding to final database dump
0018.171 (0) backup_2022-02-18-1751_Africhild_add6f2b57356-db-table-wpq1_imagify_folders.table.gz (7/66): adding to final database dump
0018.179 (0) backup_2022-02-18-1751_Africhild_add6f2b57356-db-table-wpq1_links.table.gz (8/66): adding to final database dump
0018.183 (0) backup_2022-02-18-1751_Africhild_add6f2b57356-db-table-wpq1_postmeta.table.gz (9/66): adding to final database dump
0027.707 (0) backup_2022-02-18-1751_Africhild_add6f2b57356-db-table-wpq1_posts.table.gz (10/66): adding to final database dump
0030.832 (0) backup_2022-02-18-1751_Africhild_add6f2b57356-db-table-wpq1_term_relationships.table.gz (11/66): adding to final database dump
0030.837 (0) backup_2022-02-18-1751_Africhild_add6f2b57356-db-table-wpq1_term_taxonomy.table.gz (12/66): adding to final database dump
0030.841 (0) backup_2022-02-18-1751_Africhild_add6f2b57356-db-table-wpq1_termmeta.table.gz (13/66): adding to final database dump
0030.846 (0) backup_2022-02-18-1751_Africhild_add6f2b57356-db-table-wpq1_terms.table.gz (14/66): adding to final database dump
0030.849 (0) backup_2022-02-18-1751_Africhild_add6f2b57356-db-table-wpq1_actionscheduler_actions.table.gz (15/66): adding to final database dump
0030.853 (0) backup_2022-02-18-1751_Africhild_add6f2b57356-db-table-wpq1_actionscheduler_claims.table.gz (16/66): adding to final database dump
0030.856 (0) backup_2022-02-18-1751_Africhild_add6f2b57356-db-table-wpq1_actionscheduler_groups.table.gz (17/66): adding to final database dump
0030.860 (0) backup_2022-02-18-1751_Africhild_add6f2b57356-db-table-wpq1_actionscheduler_logs.table.gz (18/66): adding to final database dump
0030.863 (0) backup_2022-02-18-1751_Africhild_add6f2b57356-db-table-wpq1_ai1ec_event_category_meta.table.gz (19/66): adding to final database dump
0030.867 (0) backup_2022-02-18-1751_Africhild_add6f2b57356-db-table-wpq1_ai1ec_event_instances.table.gz (20/66): adding to final database dump
0030.870 (0) backup_2022-02-18-1751_Africhild_add6f2b57356-db-table-wpq1_ai1ec_events.table.gz (21/66): adding to final database dump
0030.873 (0) backup_2022-02-18-1751_Africhild_add6f2b57356-db-table-wpq1_download_log.table.gz (22/66): adding to final database dump
0030.876 (0) backup_2022-02-18-1751_Africhild_add6f2b57356-db-table-wpq1_wc_download_log.table.gz (23/66): adding to final database dump
0030.880 (0) backup_2022-02-18-1751_Africhild_add6f2b57356-db-table-wpq1_wc_product_meta_lookup.table.gz (24/66): adding to final database dump
0030.883 (0) backup_2022-02-18-1751_Africhild_add6f2b57356-db-table-wpq1_wc_webhooks.table.gz (25/66): adding to final database dump
0030.886 (0) backup_2022-02-18-1751_Africhild_add6f2b57356-db-table-wpq1_wd_fb_data.table.gz (26/66): adding to final database dump
0030.891 (0) backup_2022-02-18-1751_Africhild_add6f2b57356-db-table-wpq1_wd_fb_info.table.gz (27/66): adding to final database dump
0030.894 (0) backup_2022-02-18-1751_Africhild_add6f2b57356-db-table-wpq1_wd_fb_option.table.gz (28/66): adding to final database dump
0030.897 (0) backup_2022-02-18-1751_Africhild_add6f2b57356-db-table-wpq1_wd_fb_shortcode.table.gz (29/66): adding to final database dump
0030.900 (0) backup_2022-02-18-1751_Africhild_add6f2b57356-db-table-wpq1_wd_fb_theme.table.gz (30/66): adding to final database dump
0030.904 (0) backup_2022-02-18-1751_Africhild_add6f2b57356-db-table-wpq1_wfblockediplog.table.gz (31/66): adding to final database dump
0030.907 (0) backup_2022-02-18-1751_Africhild_add6f2b57356-db-table-wpq1_wfblocks7.table.gz (32/66): adding to final database dump
0030.911 (0) backup_2022-02-18-1751_Africhild_add6f2b57356-db-table-wpq1_wfconfig.table.gz (33/66): adding to final database dump
0030.937 (0) backup_2022-02-18-1751_Africhild_add6f2b57356-db-table-wpq1_wfcrawlers.table.gz (34/66): adding to final database dump
0030.942 (0) backup_2022-02-18-1751_Africhild_add6f2b57356-db-table-wpq1_wffilechanges.table.gz (35/66): adding to final database dump
0030.945 (0) backup_2022-02-18-1751_Africhild_add6f2b57356-db-table-wpq1_wffilemods.table.gz (36/66): adding to final database dump
0033.311 (0) backup_2022-02-18-1751_Africhild_add6f2b57356-db-table-wpq1_wfhits.table.gz (37/66): adding to final database dump
0033.317 (0) backup_2022-02-18-1751_Africhild_add6f2b57356-db-table-wpq1_wfhoover.table.gz (38/66): adding to final database dump
0033.321 (0) backup_2022-02-18-1751_Africhild_add6f2b57356-db-table-wpq1_wfissues.table.gz (39/66): adding to final database dump
0033.325 (0) backup_2022-02-18-1751_Africhild_add6f2b57356-db-table-wpq1_wfknownfilelist.table.gz (40/66): adding to final database dump
0034.739 (0) backup_2022-02-18-1751_Africhild_add6f2b57356-db-table-wpq1_wflivetraffichuman.table.gz (41/66): adding to final database dump
0034.744 (0) backup_2022-02-18-1751_Africhild_add6f2b57356-db-table-wpq1_wflocs.table.gz (42/66): adding to final database dump
0034.748 (0) backup_2022-02-18-1751_Africhild_add6f2b57356-db-table-wpq1_wflogins.table.gz (43/66): adding to final database dump
0034.756 (0) backup_2022-02-18-1751_Africhild_add6f2b57356-db-table-wpq1_wfls_2fa_secrets.table.gz (44/66): adding to final database dump
0034.759 (0) backup_2022-02-18-1751_Africhild_add6f2b57356-db-table-wpq1_wfls_settings.table.gz (45/66): adding to final database dump
0034.762 (0) backup_2022-02-18-1751_Africhild_add6f2b57356-db-table-wpq1_wfnotifications.table.gz (46/66): adding to final database dump
0034.766 (0) backup_2022-02-18-1751_Africhild_add6f2b57356-db-table-wpq1_wfpendingissues.table.gz (47/66): adding to final database dump
0034.769 (0) backup_2022-02-18-1751_Africhild_add6f2b57356-db-table-wpq1_wfreversecache.table.gz (48/66): adding to final database dump
0034.773 (0) backup_2022-02-18-1751_Africhild_add6f2b57356-db-table-wpq1_wfsnipcache.table.gz (49/66): adding to final database dump
0034.776 (0) backup_2022-02-18-1751_Africhild_add6f2b57356-db-table-wpq1_wfstatus.table.gz (50/66): adding to final database dump
0034.782 (0) backup_2022-02-18-1751_Africhild_add6f2b57356-db-table-wpq1_wftrafficrates.table.gz (51/66): adding to final database dump
0034.785 (0) backup_2022-02-18-1751_Africhild_add6f2b57356-db-table-wpq1_woocommerce_api_keys.table.gz (52/66): adding to final database dump
0034.788 (0) backup_2022-02-18-1751_Africhild_add6f2b57356-db-table-wpq1_woocommerce_attribute_taxonomies.table.gz (53/66): adding to final database dump
0034.791 (0) backup_2022-02-18-1751_Africhild_add6f2b57356-db-table-wpq1_woocommerce_downloadable_product_permissions.table.gz (54/66): adding to final database dump
0034.794 (0) backup_2022-02-18-1751_Africhild_add6f2b57356-db-table-wpq1_woocommerce_log.table.gz (55/66): adding to final database dump
0034.797 (0) backup_2022-02-18-1751_Africhild_add6f2b57356-db-table-wpq1_woocommerce_order_itemmeta.table.gz (56/66): adding to final database dump
0034.801 (0) backup_2022-02-18-1751_Africhild_add6f2b57356-db-table-wpq1_woocommerce_order_items.table.gz (57/66): adding to final database dump
0034.804 (0) backup_2022-02-18-1751_Africhild_add6f2b57356-db-table-wpq1_woocommerce_payment_tokenmeta.table.gz (58/66): adding to final database dump
0034.807 (0) backup_2022-02-18-1751_Africhild_add6f2b57356-db-table-wpq1_woocommerce_payment_tokens.table.gz (59/66): adding to final database dump
0034.810 (0) backup_2022-02-18-1751_Africhild_add6f2b57356-db-table-wpq1_woocommerce_sessions.table.gz (60/66): adding to final database dump
0034.813 (0) backup_2022-02-18-1751_Africhild_add6f2b57356-db-table-wpq1_woocommerce_shipping_zone_locations.table.gz (61/66): adding to final database dump
0034.817 (0) backup_2022-02-18-1751_Africhild_add6f2b57356-db-table-wpq1_woocommerce_shipping_zone_methods.table.gz (62/66): adding to final database dump
0034.820 (0) backup_2022-02-18-1751_Africhild_add6f2b57356-db-table-wpq1_woocommerce_shipping_zones.table.gz (63/66): adding to final database dump
0034.823 (0) backup_2022-02-18-1751_Africhild_add6f2b57356-db-table-wpq1_woocommerce_tax_rate_locations.table.gz (64/66): adding to final database dump
0034.826 (0) backup_2022-02-18-1751_Africhild_add6f2b57356-db-table-wpq1_woocommerce_tax_rates.table.gz (65/66): adding to final database dump
0034.829 (0) backup_2022-02-18-1751_Africhild_add6f2b57356-db-table-wpq1_wpforms_tasks_meta.table.gz (66/66): adding to final database dump
0035.416 (0) backup_2022-02-18-1751_Africhild_add6f2b57356-db.gz: finished writing out complete database file (7520 KB)
0035.609 (0) Total database tables backed up: 66 (backup_2022-02-18-1751_Africhild_add6f2b57356-db.gz, size: 7728688, sha1: 6432106bec413bf69f22ace84868ffddbdf7abcb, sha256: 7362922be772a908ba2006f1fffb304208f7d035a0cef9ddfc098af57f348138)
0035.742 (0) backup_2022-02-18-1751_Africhild_add6f2b57356-db.gz: db: This file has not yet been successfully uploaded: will queue
0035.761 (0) Saving backup history. Total backup size: 7.4 MB
0035.806 (0) Requesting upload of the files that have not yet been successfully uploaded (1)
0035.811 (0) Cloud backup selection (1/1): none with instance (1/1) (last)
0035.812 (0) No remote despatch: user chose no remote backup service
0035.814 (0) Recording as successfully uploaded: backup_2022-02-18-1751_Africhild_add6f2b57356-db.gz
0035.821 (0) Prune old backups from local store: nothing to do, since the user disabled local deletion and we are using local backups
0035.822 (0) Resume backup (add6f2b57356, 0): finish run
0035.859 (0) Decremented the semaphore (fd) by 1
0035.862 (0) Semaphore (fd) unlocked
0035.866 (0) There were no errors in the uploads, so the 'resume' event (1) is being unscheduled
0035.870 (0) No email will/can be sent - the user has not configured an email address.
0035.872 (0) The backup apparently succeeded and is now complete
